LAYER,NAME,CANWALKON,X,Y,POSITION_X,POSITION_Y,DIMENSIONS_WIDTH,DIMENSIONS_HEIGHT,FRAMERECT_LEFT,FRAMERECT_TOP,FRAMERECT_WIDTH,FRAMERECT_HEIGHT
FLOOR,floor,0,0,0,0,0,20,20,60,0,20,20
TERRAIN,ceiling,0,0,0,0,0,20,20,0,20,20,20
ITEMS,erase,1,0,0,0,0,20,20,0,0,20,20
FLOOR,floor,0,1,0,20,0,20,20,60,0,20,20
TERRAIN,ceiling,0,1,0,20,0,20,20,0,20,20,20
ITEMS,erase,1,1,0,20,0,20,20,0,0,20,20
FLOOR,floor,0,2,0,40,0,20,20,60,0,20,20
TERRAIN,ceiling,0,2,0,40,0,20,20,0,20,20,20
ITEMS,erase,1,2,0,40,0,20,20,0,0,20,20
FLOOR,floor,0,3,0,60,0,20,20,60,0,20,20
TERRAIN,ceiling,0,3,0,60,0,20,20,0,20,20,20
ITEMS,erase,1,3,0,60,0,20,20,0,0,20,20
FLOOR,floor,0,4,0,80,0,20,20,60,0,20,20
TERRAIN,ceiling,0,4,0,80,0,20,20,0,20,20,20
ITEMS,erase,1,4,0,80,0,20,20,0,0,20,20
FLOOR,floor,0,5,0,100,0,20,20,60,0,20,20
TERRAIN,ceiling,0,5,0,100,0,20,20,0,20,20,20
ITEMS,erase,1,5,0,100,0,20,20,0,0,20,20
FLOOR,floor,0,6,0,120,0,20,20,60,0,20,20
TERRAIN,ceiling,0,6,0,120,0,20,20,0,20,20,20
ITEMS,erase,1,6,0,120,0,20,20,0,0,20,20
FLOOR,floor,0,7,0,140,0,20,20,60,0,20,20
TERRAIN,ceiling,0,7,0,140,0,20,20,0,20,20,20
ITEMS,erase,1,7,0,140,0,20,20,0,0,20,20
FLOOR,floor,0,8,0,160,0,20,20,60,0,20,20
TERRAIN,ceiling,0,8,0,160,0,20,20,0,20,20,20
ITEMS,erase,1,8,0,160,0,20,20,0,0,20,20
FLOOR,floor,0,9,0,180,0,20,20,60,0,20,20
TERRAIN,ceiling,0,9,0,180,0,20,20,0,20,20,20
ITEMS,erase,1,9,0,180,0,20,20,0,0,20,20
FLOOR,floor,0,10,0,200,0,20,20,60,0,20,20
TERRAIN,ceiling,0,10,0,200,0,20,20,0,20,20,20
ITEMS,erase,1,10,0,200,0,20,20,0,0,20,20
FLOOR,floor,0,11,0,220,0,20,20,60,0,20,20
TERRAIN,ceiling,0,11,0,220,0,20,20,0,20,20,20
ITEMS,erase,1,11,0,220,0,20,20,0,0,20,20
FLOOR,floor,0,12,0,240,0,20,20,60,0,20,20
TERRAIN,ceiling,0,12,0,240,0,20,20,0,20,20,20
ITEMS,erase,1,12,0,240,0,20,20,0,0,20,20
FLOOR,floor,0,13,0,260,0,20,20,60,0,20,20
TERRAIN,ceiling,0,13,0,260,0,20,20,0,20,20,20
ITEMS,erase,1,13,0,260,0,20,20,0,0,20,20
FLOOR,floor,0,14,0,280,0,20,20,60,0,20,20
TERRAIN,ceiling,0,14,0,280,0,20,20,0,20,20,20
ITEMS,erase,1,14,0,280,0,20,20,0,0,20,20
FLOOR,floor,0,15,0,300,0,20,20,60,0,20,20
TERRAIN,ceiling,0,15,0,300,0,20,20,0,20,20,20
ITEMS,erase,1,15,0,300,0,20,20,0,0,20,20
FLOOR,floor,0,16,0,320,0,20,20,60,0,20,20
TERRAIN,ceiling,0,16,0,320,0,20,20,0,20,20,20
ITEMS,erase,1,16,0,320,0,20,20,0,0,20,20
FLOOR,floor,0,17,0,340,0,20,20,60,0,20,20
TERRAIN,ceiling,0,17,0,340,0,20,20,0,20,20,20
ITEMS,erase,1,17,0,340,0,20,20,0,0,20,20
FLOOR,floor,0,18,0,360,0,20,20,60,0,20,20
TERRAIN,ceiling,0,18,0,360,0,20,20,0,20,20,20
ITEMS,erase,1,18,0,360,0,20,20,0,0,20,20
FLOOR,floor,0,19,0,380,0,20,20,60,0,20,20
TERRAIN,ceiling,0,19,0,380,0,20,20,0,20,20,20
ITEMS,erase,1,19,0,380,0,20,20,0,0,20,20
FLOOR,floor,0,0,1,0,20,20,20,60,0,20,20
TERRAIN,ceiling,0,0,1,0,20,20,20,0,20,20,20
ITEMS,erase,1,0,1,0,20,20,20,0,0,20,20
FLOOR,floor,1,1,1,20,20,20,20,60,0,20,20
TERRAIN,wall1 diag left top,0,1,1,20,20,20,20,0,40,20,20
ITEMS,erase,1,1,1,20,20,20,20,0,0,20,20
FLOOR,floor,1,2,1,40,20,20,20,60,0,20,20
TERRAIN,wall1 center,0,2,1,40,20,20,20,20,40,20,20
ITEMS,erase,1,2,1,40,20,20,20,0,0,20,20
FLOOR,floor,1,3,1,60,20,20,20,60,0,20,20
TERRAIN,wall1 center,0,3,1,60,20,20,20,20,40,20,20
ITEMS,erase,1,3,1,60,20,20,20,0,0,20,20
FLOOR,floor,1,4,1,80,20,20,20,60,0,20,20
TERRAIN,wall1 center,0,4,1,80,20,20,20,20,40,20,20
ITEMS,erase,1,4,1,80,20,20,20,0,0,20,20
FLOOR,floor,1,5,1,100,20,20,20,60,0,20,20
TERRAIN,wall1 center,0,5,1,100,20,20,20,20,40,20,20
ITEMS,erase,1,5,1,100,20,20,20,0,0,20,20
FLOOR,floor,1,6,1,120,20,20,20,60,0,20,20
TERRAIN,closed door,0,6,1,120,20,20,20,100,40,20,20
ITEMS,erase,1,6,1,120,20,20,20,0,0,20,20
FLOOR,floor,1,7,1,140,20,20,20,60,0,20,20
TERRAIN,wall1 center,0,7,1,140,20,20,20,20,40,20,20
ITEMS,erase,1,7,1,140,20,20,20,0,0,20,20
FLOOR,floor,1,8,1,160,20,20,20,60,0,20,20
TERRAIN,wall1 center,0,8,1,160,20,20,20,20,40,20,20
ITEMS,erase,1,8,1,160,20,20,20,0,0,20,20
FLOOR,floor,1,9,1,180,20,20,20,60,0,20,20
TERRAIN,wall1 center,0,9,1,180,20,20,20,20,40,20,20
ITEMS,erase,1,9,1,180,20,20,20,0,0,20,20
FLOOR,floor,1,10,1,200,20,20,20,60,0,20,20
TERRAIN,wall1 center,0,10,1,200,20,20,20,20,40,20,20
ITEMS,erase,1,10,1,200,20,20,20,0,0,20,20
FLOOR,floor,1,11,1,220,20,20,20,60,0,20,20
TERRAIN,ceiling,0,11,1,220,20,20,20,0,20,20,20
ITEMS,erase,1,11,1,220,20,20,20,0,0,20,20
FLOOR,floor,1,12,1,240,20,20,20,60,0,20,20
TERRAIN,wall1 center,0,12,1,240,20,20,20,20,40,20,20
ITEMS,erase,1,12,1,240,20,20,20,0,0,20,20
FLOOR,floor,1,13,1,260,20,20,20,60,0,20,20
TERRAIN,wall1 center,0,13,1,260,20,20,20,20,40,20,20
ITEMS,erase,1,13,1,260,20,20,20,0,0,20,20
FLOOR,floor,1,14,1,280,20,20,20,60,0,20,20
TERRAIN,wall1 center,0,14,1,280,20,20,20,20,40,20,20
ITEMS,erase,1,14,1,280,20,20,20,0,0,20,20
FLOOR,floor,1,15,1,300,20,20,20,60,0,20,20
TERRAIN,wall1 center,0,15,1,300,20,20,20,20,40,20,20
ITEMS,erase,1,15,1,300,20,20,20,0,0,20,20
FLOOR,floor,1,16,1,320,20,20,20,60,0,20,20
TERRAIN,wall1 center,0,16,1,320,20,20,20,20,40,20,20
ITEMS,erase,1,16,1,320,20,20,20,0,0,20,20
FLOOR,floor,1,17,1,340,20,20,20,60,0,20,20
TERRAIN,wall1 center,0,17,1,340,20,20,20,20,40,20,20
ITEMS,erase,1,17,1,340,20,20,20,0,0,20,20
FLOOR,floor,1,18,1,360,20,20,20,60,0,20,20
TERRAIN,wall1 center,0,18,1,360,20,20,20,20,40,20,20
ITEMS,erase,1,18,1,360,20,20,20,0,0,20,20
FLOOR,floor,0,19,1,380,20,20,20,60,0,20,20
TERRAIN,ceiling,0,19,1,380,20,20,20,0,20,20,20
ITEMS,erase,1,19,1,380,20,20,20,0,0,20,20
FLOOR,floor,0,0,2,0,40,20,20,60,0,20,20
TERRAIN,ceiling,0,0,2,0,40,20,20,0,20,20,20
ITEMS,erase,1,0,2,0,40,20,20,0,0,20,20
FLOOR,floor,1,1,2,20,40,20,20,60,0,20,20
TERRAIN,wall1 diag left bottom,0,1,2,20,40,20,20,0,60,20,20
ITEMS,erase,1,1,2,20,40,20,20,0,0,20,20
FLOOR,floor,1,2,2,40,40,20,20,60,0,20,20
TERRAIN,erase,1,2,2,40,40,20,20,0,0,20,20
ITEMS,erase,1,2,2,40,40,20,20,0,0,20,20
FLOOR,floor,1,3,2,60,40,20,20,60,0,20,20
TERRAIN,erase,1,3,2,60,40,20,20,0,0,20,20
ITEMS,erase,1,3,2,60,40,20,20,0,0,20,20
FLOOR,floor,1,4,2,80,40,20,20,60,0,20,20
TERRAIN,erase,1,4,2,80,40,20,20,0,0,20,20
ITEMS,erase,1,4,2,80,40,20,20,0,0,20,20
FLOOR,floor,1,5,2,100,40,20,20,60,0,20,20
TERRAIN,erase,1,5,2,100,40,20,20,0,0,20,20
ITEMS,erase,1,5,2,100,40,20,20,0,0,20,20
FLOOR,floor,1,6,2,120,40,20,20,60,0,20,20
TERRAIN,erase,1,6,2,120,40,20,20,0,0,20,20
ITEMS,erase,1,6,2,120,40,20,20,0,0,20,20
FLOOR,floor,1,7,2,140,40,20,20,60,0,20,20
TERRAIN,erase,1,7,2,140,40,20,20,0,0,20,20
ITEMS,erase,1,7,2,140,40,20,20,0,0,20,20
FLOOR,floor,1,8,2,160,40,20,20,60,0,20,20
TERRAIN,erase,1,8,2,160,40,20,20,0,0,20,20
ITEMS,erase,1,8,2,160,40,20,20,0,0,20,20
FLOOR,floor,1,9,2,180,40,20,20,60,0,20,20
TERRAIN,erase,1,9,2,180,40,20,20,0,0,20,20
ITEMS,erase,1,9,2,180,40,20,20,0,0,20,20
FLOOR,floor,1,10,2,200,40,20,20,60,0,20,20
TERRAIN,erase,1,10,2,200,40,20,20,0,0,20,20
ITEMS,static enemy south,0,10,2,200,40,20,20,120,0,20,20
FLOOR,floor,1,11,2,220,40,20,20,60,0,20,20
TERRAIN,ceiling,0,11,2,220,40,20,20,0,20,20,20
ITEMS,erase,1,11,2,220,40,20,20,0,0,20,20
FLOOR,floor,1,12,2,240,40,20,20,60,0,20,20
TERRAIN,erase,1,12,2,240,40,20,20,0,0,20,20
ITEMS,erase,1,12,2,240,40,20,20,0,0,20,20
FLOOR,floor,1,13,2,260,40,20,20,60,0,20,20
TERRAIN,erase,1,13,2,260,40,20,20,0,0,20,20
ITEMS,erase,1,13,2,260,40,20,20,0,0,20,20
FLOOR,floor,1,14,2,280,40,20,20,60,0,20,20
TERRAIN,erase,1,14,2,280,40,20,20,0,0,20,20
ITEMS,erase,1,14,2,280,40,20,20,0,0,20,20
FLOOR,floor,1,15,2,300,40,20,20,60,0,20,20
TERRAIN,erase,1,15,2,300,40,20,20,0,0,20,20
ITEMS,erase,1,15,2,300,40,20,20,0,0,20,20
FLOOR,floor,1,16,2,320,40,20,20,60,0,20,20
TERRAIN,erase,1,16,2,320,40,20,20,0,0,20,20
ITEMS,erase,1,16,2,320,40,20,20,0,0,20,20
FLOOR,floor,1,17,2,340,40,20,20,60,0,20,20
TERRAIN,erase,1,17,2,340,40,20,20,0,0,20,20
ITEMS,erase,1,17,2,340,40,20,20,0,0,20,20
FLOOR,floor,1,18,2,360,40,20,20,60,0,20,20
TERRAIN,erase,1,18,2,360,40,20,20,0,0,20,20
ITEMS,erase,1,18,2,360,40,20,20,0,0,20,20
FLOOR,floor,0,19,2,380,40,20,20,60,0,20,20
TERRAIN,ceiling,0,19,2,380,40,20,20,0,20,20,20
ITEMS,erase,1,19,2,380,40,20,20,0,0,20,20
FLOOR,floor,0,0,3,0,60,20,20,60,0,20,20
TERRAIN,ceiling,0,0,3,0,60,20,20,0,20,20,20
ITEMS,erase,1,0,3,0,60,20,20,0,0,20,20
FLOOR,floor,1,1,3,20,60,20,20,60,0,20,20
TERRAIN,erase,1,1,3,20,60,20,20,0,0,20,20
ITEMS,erase,1,1,3,20,60,20,20,0,0,20,20
FLOOR,floor,1,2,3,40,60,20,20,60,0,20,20
TERRAIN,erase,1,2,3,40,60,20,20,0,0,20,20
ITEMS,erase,1,2,3,40,60,20,20,0,0,20,20
FLOOR,floor,1,3,3,60,60,20,20,60,0,20,20
TERRAIN,erase,1,3,3,60,60,20,20,0,0,20,20
ITEMS,erase,1,3,3,60,60,20,20,0,0,20,20
FLOOR,floor,1,4,3,80,60,20,20,60,0,20,20
TERRAIN,erase,1,4,3,80,60,20,20,0,0,20,20
ITEMS,egg,1,4,3,80,60,20,20,20,20,20,20
FLOOR,floor,1,5,3,100,60,20,20,60,0,20,20
TERRAIN,erase,1,5,3,100,60,20,20,0,0,20,20
ITEMS,erase,1,5,3,100,60,20,20,0,0,20,20
FLOOR,floor,1,6,3,120,60,20,20,60,0,20,20
TERRAIN,erase,1,6,3,120,60,20,20,0,0,20,20
ITEMS,erase,1,6,3,120,60,20,20,0,0,20,20
FLOOR,floor,1,7,3,140,60,20,20,60,0,20,20
TERRAIN,erase,1,7,3,140,60,20,20,0,0,20,20
ITEMS,erase,1,7,3,140,60,20,20,0,0,20,20
FLOOR,floor,1,8,3,160,60,20,20,60,0,20,20
TERRAIN,erase,1,8,3,160,60,20,20,0,0,20,20
ITEMS,2dir enemy south,0,8,3,160,60,20,20,120,40,20,20
FLOOR,floor,1,9,3,180,60,20,20,60,0,20,20
TERRAIN,erase,1,9,3,180,60,20,20,0,0,20,20
ITEMS,erase,1,9,3,180,60,20,20,0,0,20,20
FLOOR,floor,1,10,3,200,60,20,20,60,0,20,20
TERRAIN,erase,1,10,3,200,60,20,20,0,0,20,20
ITEMS,erase,1,10,3,200,60,20,20,0,0,20,20
FLOOR,floor,1,11,3,220,60,20,20,60,0,20,20
TERRAIN,ceiling,0,11,3,220,60,20,20,0,20,20,20
ITEMS,erase,1,11,3,220,60,20,20,0,0,20,20
FLOOR,floor,1,12,3,240,60,20,20,60,0,20,20
TERRAIN,erase,1,12,3,240,60,20,20,0,0,20,20
ITEMS,erase,1,12,3,240,60,20,20,0,0,20,20
FLOOR,floor,1,13,3,260,60,20,20,60,0,20,20
TERRAIN,erase,1,13,3,260,60,20,20,0,0,20,20
ITEMS,erase,1,13,3,260,60,20,20,0,0,20,20
FLOOR,floor,1,14,3,280,60,20,20,60,0,20,20
TERRAIN,erase,1,14,3,280,60,20,20,0,0,20,20
ITEMS,erase,1,14,3,280,60,20,20,0,0,20,20
FLOOR,floor,1,15,3,300,60,20,20,60,0,20,20
TERRAIN,erase,1,15,3,300,60,20,20,0,0,20,20
ITEMS,rawr start,0,15,3,300,60,20,20,100,0,20,20
FLOOR,floor,1,16,3,320,60,20,20,60,0,20,20
TERRAIN,erase,1,16,3,320,60,20,20,0,0,20,20
ITEMS,erase,1,16,3,320,60,20,20,0,0,20,20
FLOOR,floor,1,17,3,340,60,20,20,60,0,20,20
TERRAIN,erase,1,17,3,340,60,20,20,0,0,20,20
ITEMS,erase,1,17,3,340,60,20,20,0,0,20,20
FLOOR,floor,1,18,3,360,60,20,20,60,0,20,20
TERRAIN,erase,1,18,3,360,60,20,20,0,0,20,20
ITEMS,erase,1,18,3,360,60,20,20,0,0,20,20
FLOOR,floor,0,19,3,380,60,20,20,60,0,20,20
TERRAIN,ceiling,0,19,3,380,60,20,20,0,20,20,20
ITEMS,erase,1,19,3,380,60,20,20,0,0,20,20
FLOOR,floor,0,0,4,0,80,20,20,60,0,20,20
TERRAIN,ceiling,0,0,4,0,80,20,20,0,20,20,20
ITEMS,erase,1,0,4,0,80,20,20,0,0,20,20
FLOOR,floor,1,1,4,20,80,20,20,60,0,20,20
TERRAIN,erase,1,1,4,20,80,20,20,0,0,20,20
ITEMS,erase,1,1,4,20,80,20,20,0,0,20,20
FLOOR,floor,1,2,4,40,80,20,20,60,0,20,20
TERRAIN,erase,1,2,4,40,80,20,20,0,0,20,20
ITEMS,turner enemy south,0,2,4,40,80,20,20,120,20,20,20
FLOOR,floor,1,3,4,60,80,20,20,60,0,20,20
TERRAIN,erase,1,3,4,60,80,20,20,0,0,20,20
ITEMS,erase,1,3,4,60,80,20,20,0,0,20,20
FLOOR,floor,1,4,4,80,80,20,20,60,0,20,20
TERRAIN,erase,1,4,4,80,80,20,20,0,0,20,20
ITEMS,erase,1,4,4,80,80,20,20,0,0,20,20
FLOOR,floor,1,5,4,100,80,20,20,60,0,20,20
TERRAIN,erase,1,5,4,100,80,20,20,0,0,20,20
ITEMS,erase,1,5,4,100,80,20,20,0,0,20,20
FLOOR,floor,1,6,4,120,80,20,20,60,0,20,20
TERRAIN,erase,1,6,4,120,80,20,20,0,0,20,20
ITEMS,erase,1,6,4,120,80,20,20,0,0,20,20
FLOOR,floor,1,7,4,140,80,20,20,60,0,20,20
TERRAIN,erase,1,7,4,140,80,20,20,0,0,20,20
ITEMS,erase,1,7,4,140,80,20,20,0,0,20,20
FLOOR,floor,1,8,4,160,80,20,20,60,0,20,20
TERRAIN,erase,1,8,4,160,80,20,20,0,0,20,20
ITEMS,erase,1,8,4,160,80,20,20,0,0,20,20
FLOOR,floor,1,9,4,180,80,20,20,60,0,20,20
TERRAIN,erase,1,9,4,180,80,20,20,0,0,20,20
ITEMS,erase,1,9,4,180,80,20,20,0,0,20,20
FLOOR,floor,1,10,4,200,80,20,20,60,0,20,20
TERRAIN,erase,1,10,4,200,80,20,20,0,0,20,20
ITEMS,erase,1,10,4,200,80,20,20,0,0,20,20
FLOOR,floor,1,11,4,220,80,20,20,60,0,20,20
TERRAIN,ceiling,0,11,4,220,80,20,20,0,20,20,20
ITEMS,erase,1,11,4,220,80,20,20,0,0,20,20
FLOOR,floor,1,12,4,240,80,20,20,60,0,20,20
TERRAIN,erase,1,12,4,240,80,20,20,0,0,20,20
ITEMS,erase,1,12,4,240,80,20,20,0,0,20,20
FLOOR,floor,1,13,4,260,80,20,20,60,0,20,20
TERRAIN,erase,1,13,4,260,80,20,20,0,0,20,20
ITEMS,erase,1,13,4,260,80,20,20,0,0,20,20
FLOOR,floor,1,14,4,280,80,20,20,60,0,20,20
TERRAIN,erase,1,14,4,280,80,20,20,0,0,20,20
ITEMS,erase,1,14,4,280,80,20,20,0,0,20,20
FLOOR,floor,1,15,4,300,80,20,20,60,0,20,20
TERRAIN,erase,1,15,4,300,80,20,20,0,0,20,20
ITEMS,crate,0,15,4,300,80,20,20,40,20,20,20
FLOOR,floor,1,16,4,320,80,20,20,60,0,20,20
TERRAIN,erase,1,16,4,320,80,20,20,0,0,20,20
ITEMS,erase,1,16,4,320,80,20,20,0,0,20,20
FLOOR,floor,1,17,4,340,80,20,20,60,0,20,20
TERRAIN,erase,1,17,4,340,80,20,20,0,0,20,20
ITEMS,erase,1,17,4,340,80,20,20,0,0,20,20
FLOOR,floor,1,18,4,360,80,20,20,60,0,20,20
TERRAIN,erase,1,18,4,360,80,20,20,0,0,20,20
ITEMS,erase,1,18,4,360,80,20,20,0,0,20,20
FLOOR,floor,0,19,4,380,80,20,20,60,0,20,20
TERRAIN,ceiling,0,19,4,380,80,20,20,0,20,20,20
ITEMS,erase,1,19,4,380,80,20,20,0,0,20,20
FLOOR,floor,0,0,5,0,100,20,20,60,0,20,20
TERRAIN,ceiling,0,0,5,0,100,20,20,0,20,20,20
ITEMS,erase,1,0,5,0,100,20,20,0,0,20,20
FLOOR,floor,1,1,5,20,100,20,20,60,0,20,20
TERRAIN,erase,1,1,5,20,100,20,20,0,0,20,20
ITEMS,erase,1,1,5,20,100,20,20,0,0,20,20
FLOOR,floor,1,2,5,40,100,20,20,60,0,20,20
TERRAIN,erase,1,2,5,40,100,20,20,0,0,20,20
ITEMS,erase,1,2,5,40,100,20,20,0,0,20,20
FLOOR,floor,1,3,5,60,100,20,20,60,0,20,20
TERRAIN,erase,1,3,5,60,100,20,20,0,0,20,20
ITEMS,erase,1,3,5,60,100,20,20,0,0,20,20
FLOOR,floor,1,4,5,80,100,20,20,60,0,20,20
TERRAIN,erase,1,4,5,80,100,20,20,0,0,20,20
ITEMS,crate,0,4,5,80,100,20,20,40,20,20,20
FLOOR,floor,1,5,5,100,100,20,20,60,0,20,20
TERRAIN,erase,1,5,5,100,100,20,20,0,0,20,20
ITEMS,crate,0,5,5,100,100,20,20,40,20,20,20
FLOOR,floor,1,6,5,120,100,20,20,60,0,20,20
TERRAIN,erase,1,6,5,120,100,20,20,0,0,20,20
ITEMS,crate,0,6,5,120,100,20,20,40,20,20,20
FLOOR,floor,1,7,5,140,100,20,20,60,0,20,20
TERRAIN,erase,1,7,5,140,100,20,20,0,0,20,20
ITEMS,crate,0,7,5,140,100,20,20,40,20,20,20
FLOOR,floor,1,8,5,160,100,20,20,60,0,20,20
TERRAIN,erase,1,8,5,160,100,20,20,0,0,20,20
ITEMS,crate,0,8,5,160,100,20,20,40,20,20,20
FLOOR,floor,1,9,5,180,100,20,20,60,0,20,20
TERRAIN,erase,1,9,5,180,100,20,20,0,0,20,20
ITEMS,crate,0,9,5,180,100,20,20,40,20,20,20
FLOOR,floor,1,10,5,200,100,20,20,60,0,20,20
TERRAIN,erase,1,10,5,200,100,20,20,0,0,20,20
ITEMS,crate,0,10,5,200,100,20,20,40,20,20,20
FLOOR,floor,1,11,5,220,100,20,20,60,0,20,20
TERRAIN,ceiling,0,11,5,220,100,20,20,0,20,20,20
ITEMS,erase,1,11,5,220,100,20,20,0,0,20,20
FLOOR,floor,1,12,5,240,100,20,20,60,0,20,20
TERRAIN,ceiling,0,12,5,240,100,20,20,0,20,20,20
ITEMS,erase,1,12,5,240,100,20,20,0,0,20,20
FLOOR,floor,1,13,5,260,100,20,20,60,0,20,20
TERRAIN,ceiling,0,13,5,260,100,20,20,0,20,20,20
ITEMS,erase,1,13,5,260,100,20,20,0,0,20,20
FLOOR,floor,1,14,5,280,100,20,20,60,0,20,20
TERRAIN,ceiling,0,14,5,280,100,20,20,0,20,20,20
ITEMS,erase,1,14,5,280,100,20,20,0,0,20,20
FLOOR,floor,1,15,5,300,100,20,20,60,0,20,20
TERRAIN,erase,1,15,5,300,100,20,20,0,0,20,20
ITEMS,erase,1,15,5,300,100,20,20,0,0,20,20
FLOOR,floor,1,16,5,320,100,20,20,60,0,20,20
TERRAIN,erase,1,16,5,320,100,20,20,0,0,20,20
ITEMS,erase,1,16,5,320,100,20,20,0,0,20,20
FLOOR,floor,1,17,5,340,100,20,20,60,0,20,20
TERRAIN,erase,1,17,5,340,100,20,20,0,0,20,20
ITEMS,crate,0,17,5,340,100,20,20,40,20,20,20
FLOOR,floor,1,18,5,360,100,20,20,60,0,20,20
TERRAIN,erase,1,18,5,360,100,20,20,0,0,20,20
ITEMS,erase,1,18,5,360,100,20,20,0,0,20,20
FLOOR,floor,0,19,5,380,100,20,20,60,0,20,20
TERRAIN,ceiling,0,19,5,380,100,20,20,0,20,20,20
ITEMS,erase,1,19,5,380,100,20,20,0,0,20,20
FLOOR,floor,0,0,6,0,120,20,20,60,0,20,20
TERRAIN,ceiling,0,0,6,0,120,20,20,0,20,20,20
ITEMS,erase,1,0,6,0,120,20,20,0,0,20,20
FLOOR,floor,1,1,6,20,120,20,20,60,0,20,20
TERRAIN,erase,1,1,6,20,120,20,20,0,0,20,20
ITEMS,erase,1,1,6,20,120,20,20,0,0,20,20
FLOOR,floor,1,2,6,40,120,20,20,60,0,20,20
TERRAIN,erase,1,2,6,40,120,20,20,0,0,20,20
ITEMS,erase,1,2,6,40,120,20,20,0,0,20,20
FLOOR,floor,1,3,6,60,120,20,20,60,0,20,20
TERRAIN,erase,1,3,6,60,120,20,20,0,0,20,20
ITEMS,erase,1,3,6,60,120,20,20,0,0,20,20
FLOOR,floor,1,4,6,80,120,20,20,60,0,20,20
TERRAIN,erase,1,4,6,80,120,20,20,0,0,20,20
ITEMS,erase,1,4,6,80,120,20,20,0,0,20,20
FLOOR,floor,1,5,6,100,120,20,20,60,0,20,20
TERRAIN,erase,1,5,6,100,120,20,20,0,0,20,20
ITEMS,erase,1,5,6,100,120,20,20,0,0,20,20
FLOOR,floor,1,6,6,120,120,20,20,60,0,20,20
TERRAIN,erase,1,6,6,120,120,20,20,0,0,20,20
ITEMS,erase,1,6,6,120,120,20,20,0,0,20,20
FLOOR,floor,1,7,6,140,120,20,20,60,0,20,20
TERRAIN,erase,1,7,6,140,120,20,20,0,0,20,20
ITEMS,erase,1,7,6,140,120,20,20,0,0,20,20
FLOOR,floor,1,8,6,160,120,20,20,60,0,20,20
TERRAIN,erase,1,8,6,160,120,20,20,0,0,20,20
ITEMS,erase,1,8,6,160,120,20,20,0,0,20,20
FLOOR,floor,1,9,6,180,120,20,20,60,0,20,20
TERRAIN,erase,1,9,6,180,120,20,20,0,0,20,20
ITEMS,erase,1,9,6,180,120,20,20,0,0,20,20
FLOOR,floor,1,10,6,200,120,20,20,60,0,20,20
TERRAIN,erase,1,10,6,200,120,20,20,0,0,20,20
ITEMS,erase,1,10,6,200,120,20,20,0,0,20,20
FLOOR,floor,1,11,6,220,120,20,20,60,0,20,20
TERRAIN,wall1 center,0,11,6,220,120,20,20,20,40,20,20
ITEMS,erase,1,11,6,220,120,20,20,0,0,20,20
FLOOR,floor,1,12,6,240,120,20,20,60,0,20,20
TERRAIN,wall1 center,0,12,6,240,120,20,20,20,40,20,20
ITEMS,erase,1,12,6,240,120,20,20,0,0,20,20
FLOOR,floor,1,13,6,260,120,20,20,60,0,20,20
TERRAIN,wall1 center,0,13,6,260,120,20,20,20,40,20,20
ITEMS,erase,1,13,6,260,120,20,20,0,0,20,20
FLOOR,floor,1,14,6,280,120,20,20,60,0,20,20
TERRAIN,wall1 center,0,14,6,280,120,20,20,20,40,20,20
ITEMS,erase,1,14,6,280,120,20,20,0,0,20,20
FLOOR,floor,1,15,6,300,120,20,20,60,0,20,20
TERRAIN,erase,1,15,6,300,120,20,20,0,0,20,20
ITEMS,erase,1,15,6,300,120,20,20,0,0,20,20
FLOOR,floor,1,16,6,320,120,20,20,60,0,20,20
TERRAIN,erase,1,16,6,320,120,20,20,0,0,20,20
ITEMS,erase,1,16,6,320,120,20,20,0,0,20,20
FLOOR,floor,1,17,6,340,120,20,20,60,0,20,20
TERRAIN,erase,1,17,6,340,120,20,20,0,0,20,20
ITEMS,erase,1,17,6,340,120,20,20,0,0,20,20
FLOOR,floor,1,18,6,360,120,20,20,60,0,20,20
TERRAIN,erase,1,18,6,360,120,20,20,0,0,20,20
ITEMS,erase,1,18,6,360,120,20,20,0,0,20,20
FLOOR,floor,0,19,6,380,120,20,20,60,0,20,20
TERRAIN,ceiling,0,19,6,380,120,20,20,0,20,20,20
ITEMS,erase,1,19,6,380,120,20,20,0,0,20,20
FLOOR,floor,0,0,7,0,140,20,20,60,0,20,20
TERRAIN,ceiling,0,0,7,0,140,20,20,0,20,20,20
ITEMS,erase,1,0,7,0,140,20,20,0,0,20,20
FLOOR,floor,1,1,7,20,140,20,20,60,0,20,20
TERRAIN,erase,1,1,7,20,140,20,20,0,0,20,20
ITEMS,erase,1,1,7,20,140,20,20,0,0,20,20
FLOOR,floor,1,2,7,40,140,20,20,60,0,20,20
TERRAIN,erase,1,2,7,40,140,20,20,0,0,20,20
ITEMS,erase,1,2,7,40,140,20,20,0,0,20,20
FLOOR,floor,1,3,7,60,140,20,20,60,0,20,20
TERRAIN,erase,1,3,7,60,140,20,20,0,0,20,20
ITEMS,erase,1,3,7,60,140,20,20,0,0,20,20
FLOOR,floor,1,4,7,80,140,20,20,60,0,20,20
TERRAIN,erase,1,4,7,80,140,20,20,0,0,20,20
ITEMS,erase,1,4,7,80,140,20,20,0,0,20,20
FLOOR,floor,1,5,7,100,140,20,20,60,0,20,20
TERRAIN,erase,1,5,7,100,140,20,20,0,0,20,20
ITEMS,erase,1,5,7,100,140,20,20,0,0,20,20
FLOOR,floor,1,6,7,120,140,20,20,60,0,20,20
TERRAIN,erase,1,6,7,120,140,20,20,0,0,20,20
ITEMS,erase,1,6,7,120,140,20,20,0,0,20,20
FLOOR,floor,1,7,7,140,140,20,20,60,0,20,20
TERRAIN,erase,1,7,7,140,140,20,20,0,0,20,20
ITEMS,erase,1,7,7,140,140,20,20,0,0,20,20
FLOOR,floor,1,8,7,160,140,20,20,60,0,20,20
TERRAIN,erase,1,8,7,160,140,20,20,0,0,20,20
ITEMS,erase,1,8,7,160,140,20,20,0,0,20,20
FLOOR,floor,1,9,7,180,140,20,20,60,0,20,20
TERRAIN,erase,1,9,7,180,140,20,20,0,0,20,20
ITEMS,erase,1,9,7,180,140,20,20,0,0,20,20
FLOOR,floor,1,10,7,200,140,20,20,60,0,20,20
TERRAIN,erase,1,10,7,200,140,20,20,0,0,20,20
ITEMS,2dir enemy west,0,10,7,200,140,20,20,140,40,20,20
FLOOR,floor,1,11,7,220,140,20,20,60,0,20,20
TERRAIN,wall1 center,0,11,7,220,140,20,20,20,40,20,20
ITEMS,erase,1,11,7,220,140,20,20,0,0,20,20
FLOOR,floor,1,12,7,240,140,20,20,60,0,20,20
TERRAIN,wall1 center,0,12,7,240,140,20,20,20,40,20,20
ITEMS,erase,1,12,7,240,140,20,20,0,0,20,20
FLOOR,floor,1,13,7,260,140,20,20,60,0,20,20
TERRAIN,wall1 center,0,13,7,260,140,20,20,20,40,20,20
ITEMS,erase,1,13,7,260,140,20,20,0,0,20,20
FLOOR,floor,1,14,7,280,140,20,20,60,0,20,20
TERRAIN,wall1 center,0,14,7,280,140,20,20,20,40,20,20
ITEMS,erase,1,14,7,280,140,20,20,0,0,20,20
FLOOR,floor,1,15,7,300,140,20,20,60,0,20,20
TERRAIN,erase,1,15,7,300,140,20,20,0,0,20,20
ITEMS,erase,1,15,7,300,140,20,20,0,0,20,20
FLOOR,floor,1,16,7,320,140,20,20,60,0,20,20
TERRAIN,erase,1,16,7,320,140,20,20,0,0,20,20
ITEMS,erase,1,16,7,320,140,20,20,0,0,20,20
FLOOR,floor,1,17,7,340,140,20,20,60,0,20,20
TERRAIN,erase,1,17,7,340,140,20,20,0,0,20,20
ITEMS,erase,1,17,7,340,140,20,20,0,0,20,20
FLOOR,floor,1,18,7,360,140,20,20,60,0,20,20
TERRAIN,erase,1,18,7,360,140,20,20,0,0,20,20
ITEMS,erase,1,18,7,360,140,20,20,0,0,20,20
FLOOR,floor,0,19,7,380,140,20,20,60,0,20,20
TERRAIN,ceiling,0,19,7,380,140,20,20,0,20,20,20
ITEMS,erase,1,19,7,380,140,20,20,0,0,20,20
FLOOR,floor,0,0,8,0,160,20,20,60,0,20,20
TERRAIN,ceiling,0,0,8,0,160,20,20,0,20,20,20
ITEMS,erase,1,0,8,0,160,20,20,0,0,20,20
FLOOR,floor,1,1,8,20,160,20,20,60,0,20,20
TERRAIN,erase,1,1,8,20,160,20,20,0,0,20,20
ITEMS,erase,1,1,8,20,160,20,20,0,0,20,20
FLOOR,floor,1,2,8,40,160,20,20,60,0,20,20
TERRAIN,erase,1,2,8,40,160,20,20,0,0,20,20
ITEMS,erase,1,2,8,40,160,20,20,0,0,20,20
FLOOR,floor,1,3,8,60,160,20,20,60,0,20,20
TERRAIN,erase,1,3,8,60,160,20,20,0,0,20,20
ITEMS,erase,1,3,8,60,160,20,20,0,0,20,20
FLOOR,floor,1,4,8,80,160,20,20,60,0,20,20
TERRAIN,erase,1,4,8,80,160,20,20,0,0,20,20
ITEMS,erase,1,4,8,80,160,20,20,0,0,20,20
FLOOR,floor,1,5,8,100,160,20,20,60,0,20,20
TERRAIN,erase,1,5,8,100,160,20,20,0,0,20,20
ITEMS,erase,1,5,8,100,160,20,20,0,0,20,20
FLOOR,floor,1,6,8,120,160,20,20,60,0,20,20
TERRAIN,erase,1,6,8,120,160,20,20,0,0,20,20
ITEMS,erase,1,6,8,120,160,20,20,0,0,20,20
FLOOR,floor,1,7,8,140,160,20,20,60,0,20,20
TERRAIN,erase,1,7,8,140,160,20,20,0,0,20,20
ITEMS,erase,1,7,8,140,160,20,20,0,0,20,20
FLOOR,floor,1,8,8,160,160,20,20,60,0,20,20
TERRAIN,erase,1,8,8,160,160,20,20,0,0,20,20
ITEMS,erase,1,8,8,160,160,20,20,0,0,20,20
FLOOR,floor,1,9,8,180,160,20,20,60,0,20,20
TERRAIN,erase,1,9,8,180,160,20,20,0,0,20,20
ITEMS,erase,1,9,8,180,160,20,20,0,0,20,20
FLOOR,floor,1,10,8,200,160,20,20,60,0,20,20
TERRAIN,erase,1,10,8,200,160,20,20,0,0,20,20
ITEMS,erase,1,10,8,200,160,20,20,0,0,20,20
FLOOR,floor,1,11,8,220,160,20,20,60,0,20,20
TERRAIN,erase,1,11,8,220,160,20,20,0,0,20,20
ITEMS,2dir enemy south,0,11,8,220,160,20,20,120,40,20,20
FLOOR,floor,1,12,8,240,160,20,20,60,0,20,20
TERRAIN,erase,1,12,8,240,160,20,20,0,0,20,20
ITEMS,erase,1,12,8,240,160,20,20,0,0,20,20
FLOOR,floor,1,13,8,260,160,20,20,60,0,20,20
TERRAIN,erase,1,13,8,260,160,20,20,0,0,20,20
ITEMS,erase,1,13,8,260,160,20,20,0,0,20,20
FLOOR,floor,1,14,8,280,160,20,20,60,0,20,20
TERRAIN,erase,1,14,8,280,160,20,20,0,0,20,20
ITEMS,erase,1,14,8,280,160,20,20,0,0,20,20
FLOOR,floor,1,15,8,300,160,20,20,60,0,20,20
TERRAIN,erase,1,15,8,300,160,20,20,0,0,20,20
ITEMS,erase,1,15,8,300,160,20,20,0,0,20,20
FLOOR,floor,1,16,8,320,160,20,20,60,0,20,20
TERRAIN,erase,1,16,8,320,160,20,20,0,0,20,20
ITEMS,erase,1,16,8,320,160,20,20,0,0,20,20
FLOOR,floor,1,17,8,340,160,20,20,60,0,20,20
TERRAIN,erase,1,17,8,340,160,20,20,0,0,20,20
ITEMS,erase,1,17,8,340,160,20,20,0,0,20,20
FLOOR,floor,1,18,8,360,160,20,20,60,0,20,20
TERRAIN,erase,1,18,8,360,160,20,20,0,0,20,20
ITEMS,erase,1,18,8,360,160,20,20,0,0,20,20
FLOOR,floor,0,19,8,380,160,20,20,60,0,20,20
TERRAIN,ceiling,0,19,8,380,160,20,20,0,20,20,20
ITEMS,erase,1,19,8,380,160,20,20,0,0,20,20
FLOOR,floor,0,0,9,0,180,20,20,60,0,20,20
TERRAIN,ceiling,0,0,9,0,180,20,20,0,20,20,20
ITEMS,erase,1,0,9,0,180,20,20,0,0,20,20
FLOOR,floor,1,1,9,20,180,20,20,60,0,20,20
TERRAIN,erase,1,1,9,20,180,20,20,0,0,20,20
ITEMS,erase,1,1,9,20,180,20,20,0,0,20,20
FLOOR,floor,1,2,9,40,180,20,20,60,0,20,20
TERRAIN,erase,1,2,9,40,180,20,20,0,0,20,20
ITEMS,erase,1,2,9,40,180,20,20,0,0,20,20
FLOOR,floor,1,3,9,60,180,20,20,60,0,20,20
TERRAIN,erase,1,3,9,60,180,20,20,0,0,20,20
ITEMS,erase,1,3,9,60,180,20,20,0,0,20,20
FLOOR,floor,1,4,9,80,180,20,20,60,0,20,20
TERRAIN,erase,1,4,9,80,180,20,20,0,0,20,20
ITEMS,egg,1,4,9,80,180,20,20,20,20,20,20
FLOOR,floor,1,5,9,100,180,20,20,60,0,20,20
TERRAIN,erase,1,5,9,100,180,20,20,0,0,20,20
ITEMS,erase,1,5,9,100,180,20,20,0,0,20,20
FLOOR,floor,1,6,9,120,180,20,20,60,0,20,20
TERRAIN,erase,1,6,9,120,180,20,20,0,0,20,20
ITEMS,erase,1,6,9,120,180,20,20,0,0,20,20
FLOOR,floor,1,7,9,140,180,20,20,60,0,20,20
TERRAIN,erase,1,7,9,140,180,20,20,0,0,20,20
ITEMS,erase,1,7,9,140,180,20,20,0,0,20,20
FLOOR,floor,1,8,9,160,180,20,20,60,0,20,20
TERRAIN,erase,1,8,9,160,180,20,20,0,0,20,20
ITEMS,erase,1,8,9,160,180,20,20,0,0,20,20
FLOOR,floor,1,9,9,180,180,20,20,60,0,20,20
TERRAIN,erase,1,9,9,180,180,20,20,0,0,20,20
ITEMS,erase,1,9,9,180,180,20,20,0,0,20,20
FLOOR,floor,1,10,9,200,180,20,20,60,0,20,20
TERRAIN,erase,1,10,9,200,180,20,20,0,0,20,20
ITEMS,erase,1,10,9,200,180,20,20,0,0,20,20
FLOOR,floor,1,11,9,220,180,20,20,60,0,20,20
TERRAIN,erase,1,11,9,220,180,20,20,0,0,20,20
ITEMS,erase,1,11,9,220,180,20,20,0,0,20,20
FLOOR,floor,1,12,9,240,180,20,20,60,0,20,20
TERRAIN,erase,1,12,9,240,180,20,20,0,0,20,20
ITEMS,erase,1,12,9,240,180,20,20,0,0,20,20
FLOOR,floor,1,13,9,260,180,20,20,60,0,20,20
TERRAIN,erase,1,13,9,260,180,20,20,0,0,20,20
ITEMS,erase,1,13,9,260,180,20,20,0,0,20,20
FLOOR,floor,1,14,9,280,180,20,20,60,0,20,20
TERRAIN,erase,1,14,9,280,180,20,20,0,0,20,20
ITEMS,erase,1,14,9,280,180,20,20,0,0,20,20
FLOOR,floor,1,15,9,300,180,20,20,60,0,20,20
TERRAIN,erase,1,15,9,300,180,20,20,0,0,20,20
ITEMS,erase,1,15,9,300,180,20,20,0,0,20,20
FLOOR,floor,1,16,9,320,180,20,20,60,0,20,20
TERRAIN,erase,1,16,9,320,180,20,20,0,0,20,20
ITEMS,erase,1,16,9,320,180,20,20,0,0,20,20
FLOOR,floor,1,17,9,340,180,20,20,60,0,20,20
TERRAIN,erase,1,17,9,340,180,20,20,0,0,20,20
ITEMS,erase,1,17,9,340,180,20,20,0,0,20,20
FLOOR,floor,1,18,9,360,180,20,20,60,0,20,20
TERRAIN,erase,1,18,9,360,180,20,20,0,0,20,20
ITEMS,erase,1,18,9,360,180,20,20,0,0,20,20
FLOOR,floor,0,19,9,380,180,20,20,60,0,20,20
TERRAIN,ceiling,0,19,9,380,180,20,20,0,20,20,20
ITEMS,erase,1,19,9,380,180,20,20,0,0,20,20
FLOOR,floor,0,0,10,0,200,20,20,60,0,20,20
TERRAIN,ceiling,0,0,10,0,200,20,20,0,20,20,20
ITEMS,erase,1,0,10,0,200,20,20,0,0,20,20
FLOOR,floor,1,1,10,20,200,20,20,60,0,20,20
TERRAIN,erase,1,1,10,20,200,20,20,0,0,20,20
ITEMS,erase,1,1,10,20,200,20,20,0,0,20,20
FLOOR,floor,1,2,10,40,200,20,20,60,0,20,20
TERRAIN,erase,1,2,10,40,200,20,20,0,0,20,20
ITEMS,erase,1,2,10,40,200,20,20,0,0,20,20
FLOOR,floor,1,3,10,60,200,20,20,60,0,20,20
TERRAIN,erase,1,3,10,60,200,20,20,0,0,20,20
ITEMS,erase,1,3,10,60,200,20,20,0,0,20,20
FLOOR,floor,1,4,10,80,200,20,20,60,0,20,20
TERRAIN,erase,1,4,10,80,200,20,20,0,0,20,20
ITEMS,erase,1,4,10,80,200,20,20,0,0,20,20
FLOOR,floor,1,5,10,100,200,20,20,60,0,20,20
TERRAIN,erase,1,5,10,100,200,20,20,0,0,20,20
ITEMS,erase,1,5,10,100,200,20,20,0,0,20,20
FLOOR,floor,1,6,10,120,200,20,20,60,0,20,20
TERRAIN,erase,1,6,10,120,200,20,20,0,0,20,20
ITEMS,erase,1,6,10,120,200,20,20,0,0,20,20
FLOOR,floor,1,7,10,140,200,20,20,60,0,20,20
TERRAIN,erase,1,7,10,140,200,20,20,0,0,20,20
ITEMS,erase,1,7,10,140,200,20,20,0,0,20,20
FLOOR,floor,1,8,10,160,200,20,20,60,0,20,20
TERRAIN,erase,1,8,10,160,200,20,20,0,0,20,20
ITEMS,erase,1,8,10,160,200,20,20,0,0,20,20
FLOOR,floor,1,9,10,180,200,20,20,60,0,20,20
TERRAIN,erase,1,9,10,180,200,20,20,0,0,20,20
ITEMS,erase,1,9,10,180,200,20,20,0,0,20,20
FLOOR,floor,1,10,10,200,200,20,20,60,0,20,20
TERRAIN,erase,1,10,10,200,200,20,20,0,0,20,20
ITEMS,erase,1,10,10,200,200,20,20,0,0,20,20
FLOOR,floor,1,11,10,220,200,20,20,60,0,20,20
TERRAIN,erase,1,11,10,220,200,20,20,0,0,20,20
ITEMS,erase,1,11,10,220,200,20,20,0,0,20,20
FLOOR,floor,1,12,10,240,200,20,20,60,0,20,20
TERRAIN,erase,1,12,10,240,200,20,20,0,0,20,20
ITEMS,erase,1,12,10,240,200,20,20,0,0,20,20
FLOOR,floor,1,13,10,260,200,20,20,60,0,20,20
TERRAIN,erase,1,13,10,260,200,20,20,0,0,20,20
ITEMS,erase,1,13,10,260,200,20,20,0,0,20,20
FLOOR,floor,1,14,10,280,200,20,20,60,0,20,20
TERRAIN,erase,1,14,10,280,200,20,20,0,0,20,20
ITEMS,erase,1,14,10,280,200,20,20,0,0,20,20
FLOOR,floor,1,15,10,300,200,20,20,60,0,20,20
TERRAIN,tile eraser,1,15,10,300,200,20,20,0,0,20,20
ITEMS,item eraser,1,15,10,300,200,20,20,0,0,20,20
FLOOR,floor,1,16,10,320,200,20,20,60,0,20,20
TERRAIN,erase,1,16,10,320,200,20,20,0,0,20,20
ITEMS,erase,1,16,10,320,200,20,20,0,0,20,20
FLOOR,floor,1,17,10,340,200,20,20,60,0,20,20
TERRAIN,erase,1,17,10,340,200,20,20,0,0,20,20
ITEMS,erase,1,17,10,340,200,20,20,0,0,20,20
FLOOR,floor,1,18,10,360,200,20,20,60,0,20,20
TERRAIN,erase,1,18,10,360,200,20,20,0,0,20,20
ITEMS,erase,1,18,10,360,200,20,20,0,0,20,20
FLOOR,floor,0,19,10,380,200,20,20,60,0,20,20
TERRAIN,ceiling,0,19,10,380,200,20,20,0,20,20,20
ITEMS,erase,1,19,10,380,200,20,20,0,0,20,20
FLOOR,floor,0,0,11,0,220,20,20,60,0,20,20
TERRAIN,ceiling,0,0,11,0,220,20,20,0,20,20,20
ITEMS,erase,1,0,11,0,220,20,20,0,0,20,20
FLOOR,floor,0,1,11,20,220,20,20,60,0,20,20
TERRAIN,ceiling,0,1,11,20,220,20,20,0,20,20,20
ITEMS,erase,1,1,11,20,220,20,20,0,0,20,20
FLOOR,floor,0,2,11,40,220,20,20,60,0,20,20
TERRAIN,ceiling,0,2,11,40,220,20,20,0,20,20,20
ITEMS,erase,1,2,11,40,220,20,20,0,0,20,20
FLOOR,floor,0,3,11,60,220,20,20,60,0,20,20
TERRAIN,ceiling,0,3,11,60,220,20,20,0,20,20,20
ITEMS,erase,1,3,11,60,220,20,20,0,0,20,20
FLOOR,floor,0,4,11,80,220,20,20,60,0,20,20
TERRAIN,ceiling,0,4,11,80,220,20,20,0,20,20,20
ITEMS,erase,1,4,11,80,220,20,20,0,0,20,20
FLOOR,floor,0,5,11,100,220,20,20,60,0,20,20
TERRAIN,ceiling,0,5,11,100,220,20,20,0,20,20,20
ITEMS,erase,1,5,11,100,220,20,20,0,0,20,20
FLOOR,floor,0,6,11,120,220,20,20,60,0,20,20
TERRAIN,ceiling,0,6,11,120,220,20,20,0,20,20,20
ITEMS,erase,1,6,11,120,220,20,20,0,0,20,20
FLOOR,floor,0,7,11,140,220,20,20,60,0,20,20
TERRAIN,ceiling,0,7,11,140,220,20,20,0,20,20,20
ITEMS,erase,1,7,11,140,220,20,20,0,0,20,20
FLOOR,floor,0,8,11,160,220,20,20,60,0,20,20
TERRAIN,ceiling,0,8,11,160,220,20,20,0,20,20,20
ITEMS,erase,1,8,11,160,220,20,20,0,0,20,20
FLOOR,floor,0,9,11,180,220,20,20,60,0,20,20
TERRAIN,ceiling,0,9,11,180,220,20,20,0,20,20,20
ITEMS,erase,1,9,11,180,220,20,20,0,0,20,20
FLOOR,floor,0,10,11,200,220,20,20,60,0,20,20
TERRAIN,ceiling,0,10,11,200,220,20,20,0,20,20,20
ITEMS,erase,1,10,11,200,220,20,20,0,0,20,20
FLOOR,floor,0,11,11,220,220,20,20,60,0,20,20
TERRAIN,ceiling,0,11,11,220,220,20,20,0,20,20,20
ITEMS,erase,1,11,11,220,220,20,20,0,0,20,20
FLOOR,floor,0,12,11,240,220,20,20,60,0,20,20
TERRAIN,ceiling,0,12,11,240,220,20,20,0,20,20,20
ITEMS,erase,1,12,11,240,220,20,20,0,0,20,20
FLOOR,floor,0,13,11,260,220,20,20,60,0,20,20
TERRAIN,ceiling,0,13,11,260,220,20,20,0,20,20,20
ITEMS,erase,1,13,11,260,220,20,20,0,0,20,20
FLOOR,floor,0,14,11,280,220,20,20,60,0,20,20
TERRAIN,ceiling,0,14,11,280,220,20,20,0,20,20,20
ITEMS,erase,1,14,11,280,220,20,20,0,0,20,20
FLOOR,floor,0,15,11,300,220,20,20,60,0,20,20
TERRAIN,ceiling,0,15,11,300,220,20,20,0,20,20,20
ITEMS,erase,1,15,11,300,220,20,20,0,0,20,20
FLOOR,floor,0,16,11,320,220,20,20,60,0,20,20
TERRAIN,ceiling,0,16,11,320,220,20,20,0,20,20,20
ITEMS,erase,1,16,11,320,220,20,20,0,0,20,20
FLOOR,floor,0,17,11,340,220,20,20,60,0,20,20
TERRAIN,ceiling,0,17,11,340,220,20,20,0,20,20,20
ITEMS,erase,1,17,11,340,220,20,20,0,0,20,20
FLOOR,floor,0,18,11,360,220,20,20,60,0,20,20
TERRAIN,ceiling,0,18,11,360,220,20,20,0,20,20,20
ITEMS,erase,1,18,11,360,220,20,20,0,0,20,20
FLOOR,floor,0,19,11,380,220,20,20,60,0,20,20
TERRAIN,ceiling,0,19,11,380,220,20,20,0,20,20,20
ITEMS,erase,1,19,11,380,220,20,20,0,0,20,20
